{
  "name": "aooo-wifi-client",
  "authors": [
    {
      "name": "romorin",
      "email": "4464923-romorin@users.noreply.gitlab.com",
      "url": ""
    }
  ],
  "description": "nodemcu wifi client classes for my aooo projects",
  "frameworks": "arduino",
  "platforms": [
    "esp8266",
    "esp32",
    "espressif32",
    "espressif8266"
 ]
}
